{
	"info": {
		"_postman_id": "acf7d89f-c70a-48bb-83e3-f4ed5a7a2ef5",
		"name": "JSONPlaceholder ",
		"description": "Testy dla aplikacji\r\nJSONPlaceholder  https://jsonplaceholder.typicode.com/\r\n\r\n\r\n\r\n\r\n",
		"schema": "https://schema.getpostman.com/json/collection/v2.1.0/collection.json"
	},
	"item": [
		{
			"name": "01_ADD_POST",
			"event": [
				{
					"listen": "test",
					"script": {
						"id": "f7f5dfab-73f5-4cdd-9bb8-46b33b493e1f",
						"exec": [
							"/* odpowiedź w formie JSON*/\r",
							"const response_data = pm.response.json();\r",
							"\r",
							"/*Sprawdzenie statusu odpowiedzi*/\r",
							"pm.test(\"Kod odpowiedzi HTTP: 201\", function () {\r",
							"    pm.response.to.have.status(201);\r",
							"});\r",
							"\r",
							"/*Sprawdzenie formatu odpowiedzi*/\r",
							"pm.test(\"Sprawdzenie formatu odpowiedzi [ok]\", function () {\r",
							"     pm.response.to.be.withBody;\r",
							"     pm.response.to.be.json;\r",
							"});\r",
							"\r",
							"\r",
							"/*Sprawdzenie typu danych*/\r",
							"pm.test(\"Sprawdzenie typu danych\", () => {\r",
							"  pm.expect(response_data).to.be.an(\"object\");\r",
							"  pm.expect(response_data.title).to.be.a(\"string\");\r",
							"  pm.expect(response_data.body).to.be.a(\"string\");\r",
							"  pm.expect(response_data.user_id).to.be.a(\"number\");\r",
							"  pm.expect(response_data.id).to.be.a(\"number\");\r",
							"});\r",
							"\r",
							"/*Sprawdzenie danych odpowiedzi usługi*/\r",
							"pm.test(\"Sprawdzenie danych usługi\", () => {\r",
							"  pm.expect(response_data.title).to.eql(pm.environment.get(\"post_title\"));\r",
							"  pm.expect(response_data.body).to.eql(pm.environment.get(\"post_body\"));\r",
							"  pm.expect(response_data.user_id).to.be.above(0);\r",
							"  pm.expect(response_data.id).to.be.above(0);\r",
							"});\r",
							"\r",
							"/*zapis nowej wartości id*/\r",
							"pm.environment.set(\"post_id_new\", response_data.id)\r",
							"\r",
							"/*Sprawdzenie nagłówka odpowiedzi*/\r",
							"tests[\"Content-Type\"] = postman.getResponseHeader(\"Content-Type\");\r",
							""
						],
						"type": "text/javascript"
					}
				}
			],
			"request": {
				"method": "POST",
				"header": [
					{
						"key": "Content-Type",
						"value": "application/json",
						"type": "text"
					},
					{
						"key": "",
						"value": "",
						"type": "text",
						"disabled": true
					}
				],
				"body": {
					"mode": "raw",
					"raw": "{\r\n    \"title\": \"[jsonplaceholder] TITLE: Tytuł testowy\",\r\n    \"body\":  \"[jsonplaceholder] BODY : Lorem ipsum dolor sit amet, consectetur adipiscing elit\",\r\n    \"user_id\": 1\r\n}"
				},
				"url": {
					"raw": "{{uri}}/posts",
					"host": [
						"{{uri}}"
					],
					"path": [
						"posts"
					]
				},
				"description": "Dodanie nowego elementu-[user post]"
			},
			"response": []
		},
		{
			"name": "02_UPDATE_POST",
			"event": [
				{
					"listen": "test",
					"script": {
						"id": "d49cc851-305c-496f-86ba-5869416af062",
						"exec": [
							"/* odpowiedź w formie JSON*/\r",
							"const response_data = pm.response.json();\r",
							"\r",
							"/*Sprawdzenie statusu odpowiedzi*/\r",
							"pm.test(\"Kod odpowiedzi HTTP: 200\", function () {\r",
							"    pm.response.to.have.status(200);\r",
							"});\r",
							"\r",
							"/*Sprawdzenie formatu odpowiedzi*/\r",
							"pm.test(\"Sprawdzenie formatu odpowiedzi [ok]\", function () {\r",
							"     pm.response.to.be.withBody;\r",
							"     pm.response.to.be.json;\r",
							"});\r",
							"\r",
							"\r",
							"/*Sprawdzenie typu danych*/\r",
							"pm.test(\"Sprawdzenie typu danych\", () => {\r",
							"  pm.expect(response_data).to.be.an(\"object\");\r",
							"  pm.expect(response_data.title).to.be.a(\"string\");\r",
							"  pm.expect(response_data.body).to.be.a(\"string\");\r",
							"  pm.expect(response_data.user_id).to.be.a(\"number\");\r",
							"  pm.expect(response_data.id).to.be.a(\"number\");\r",
							"});\r",
							"\r",
							"/*Sprawdzenie danych odpowiedzi usługi*/\r",
							"pm.test(\"Sprawdzenie danych usługi\", () => {\r",
							"  pm.expect(response_data.user_id).to.be.above(0);\r",
							"  pm.expect(response_data.id).to.be.above(0);\r",
							"});\r",
							"\r",
							"/*Sprawdzenie nagłówka odpowiedzi*/\r",
							"tests[\"Content-Type\"] = postman.getResponseHeader(\"Content-Type\");\r",
							""
						],
						"type": "text/javascript"
					}
				}
			],
			"request": {
				"method": "PUT",
				"header": [
					{
						"key": "Content-Type",
						"type": "text",
						"value": "application/json"
					},
					{
						"key": "",
						"type": "text",
						"value": "",
						"disabled": true
					}
				],
				"body": {
					"mode": "raw",
					"raw": "{\r\n    \"id\": {{post_id}},\r\n    \"title\": \"[jsonplaceholder] TITLE: Tytuł testwy\",\r\n    \"body\":  \"[jsonplaceholder] BODY : Lorem ipsum dolor sit amet, consectetur adipiscing elit. Nulla id varius risus, rutrum porta neque. \",\r\n    \"user_id\": 1\r\n}"
				},
				"url": {
					"raw": "{{uri}}/posts/{{post_id}}",
					"host": [
						"{{uri}}"
					],
					"path": [
						"posts",
						"{{post_id}}"
					]
				},
				"description": "Aktualizacja elementu-[user post]"
			},
			"response": []
		},
		{
			"name": "03_GET_POST",
			"event": [
				{
					"listen": "test",
					"script": {
						"id": "f18419c3-84f4-4499-90c6-7d6c59b49da0",
						"exec": [
							"/* odpowiedź w formie JSON*/\r",
							"const response_data = pm.response.json();\r",
							"\r",
							"/*Sprawdzenie statusu odpowiedzi*/\r",
							"pm.test(\"Kod odpowiedzi HTTP: 200\", function () {\r",
							"    pm.response.to.have.status(200);\r",
							"});\r",
							"\r",
							"/*Sprawdzenie formatu odpowiedzi*/\r",
							"pm.test(\"Sprawdzenie formatu odpowiedzi [ok]\", function () {\r",
							"     pm.response.to.be.withBody;\r",
							"     pm.response.to.be.json;\r",
							"});\r",
							"\r",
							"\r",
							"/*Sprawdzenie typu danych*/\r",
							"pm.test(\"Sprawdzenie typu danych\", () => {\r",
							"  pm.expect(response_data).to.be.an(\"object\");\r",
							"  pm.expect(response_data.title).to.be.a(\"string\");\r",
							"  pm.expect(response_data.body).to.be.a(\"string\");\r",
							"  pm.expect(response_data.id).to.be.a(\"number\");\r",
							"});\r",
							"\r",
							"/*Sprawdzenie danych odpowiedzi usługi*/\r",
							"pm.test(\"Sprawdzenie danych usługi\", () => {\r",
							"  pm.expect(response_data.id).to.be.above(0);\r",
							"});\r",
							"\r",
							"/*Sprawdzenie nagłówka odpowiedzi*/\r",
							"tests[\"Content-Type\"] = postman.getResponseHeader(\"Content-Type\");\r",
							""
						],
						"type": "text/javascript"
					}
				}
			],
			"request": {
				"method": "GET",
				"header": [
					{
						"key": "Content-Type",
						"type": "text",
						"value": "application/json"
					},
					{
						"key": "",
						"type": "text",
						"value": "",
						"disabled": true
					}
				],
				"url": {
					"raw": "{{uri}}/posts/{{post_id}}",
					"host": [
						"{{uri}}"
					],
					"path": [
						"posts",
						"{{post_id}}"
					]
				},
				"description": "Dodanie nowego elementu-[user post]"
			},
			"response": []
		},
		{
			"name": "04_DEL_POST",
			"event": [
				{
					"listen": "test",
					"script": {
						"id": "64d4aca0-fdfa-4bb1-aec6-953ad90548eb",
						"exec": [
							"/* odpowiedź w formie JSON*/\r",
							"const response_data = pm.response.json();\r",
							"\r",
							"/*Sprawdzenie statusu odpowiedzi*/\r",
							"pm.test(\"Kod odpowiedzi HTTP: 200\", function () {\r",
							"    pm.response.to.have.status(200);\r",
							"});\r",
							"\r",
							"/*Sprawdzenie formatu odpowiedzi*/\r",
							"pm.test(\"Sprawdzenie formatu odpowiedzi [ok]\", function () {\r",
							"     pm.response.to.be.withBody;\r",
							"     pm.response.to.be.json;\r",
							"});\r",
							"\r",
							"/*Czas odpowiedzi*/\r",
							"pm.test(\"Czas odpowiedzi mniejszy niz: \" + pm.environment.get(\"response_time\") + \"ms\", function () {\r",
							"    pm.expect(pm.response.responseTime).to.be.below(parseInt(pm.environment.get(\"response_time\")));\r",
							"});\r",
							"\r",
							"/*Rozmiar odpowiedzi*/\r",
							"pm.test(\"Rozmiar odpowiedzi mniejszy niz: \" + pm.environment.get(\"response_size\") + \"B\", function () {\r",
							"    pm.expect(pm.response.responseSize).to.be.below(parseInt(pm.environment.get(\"response_size\")));\r",
							"});\r",
							"\r",
							"/*Sprawdzenie nagłówka odpowiedzi*/\r",
							"tests[\"Content-Type\"] = postman.getResponseHeader(\"Content-Type\");\r",
							"\r",
							""
						],
						"type": "text/javascript"
					}
				}
			],
			"request": {
				"method": "DELETE",
				"header": [
					{
						"key": "Content-Type",
						"type": "text",
						"value": "application/json"
					},
					{
						"key": "",
						"type": "text",
						"value": "",
						"disabled": true
					}
				],
				"body": {
					"mode": "raw",
					"raw": "{\r\n    \"title\": \"[jsonplaceholder] TITLE: Tytuł testowy\",\r\n    \"body\":  \"[jsonplaceholder] BODY : Lorem ipsum dolor sit amet, consectetur adipiscing elit\",\r\n    \"user_id\": 1\r\n}"
				},
				"url": {
					"raw": "{{uri}}/posts/{{post_id}}",
					"host": [
						"{{uri}}"
					],
					"path": [
						"posts",
						"{{post_id}}"
					]
				},
				"description": "Usunięcie elementu-[user post]"
			},
			"response": []
		}
	],
	"event": [
		{
			"listen": "prerequest",
			"script": {
				"id": "9f9fb5cb-0a82-4c78-8d5d-79fad3a72150",
				"type": "text/javascript",
				"exec": [
					"pm.environment.set(\"post_id\", _.random(1, 100))"
				]
			}
		},
		{
			"listen": "test",
			"script": {
				"id": "c69b056c-6f82-45b6-b8b3-68a00883e172",
				"type": "text/javascript",
				"exec": [
					""
				]
			}
		}
	],
	"protocolProfileBehavior": {}
}