{
	"id": "9e1fc284-b040-437f-ba70-b31a77fe58c7",
	"name": "TRELLO",
	"values": [
		{
			"key": "board_id",
			"value": "",
			"enabled": true
		},
		{
			"key": "uri",
			"value": "https://api.trello.com/1/",
			"enabled": true
		},
		{
			"key": "token",
			"value": "",
			"enabled": true
		},
		{
			"key": "key",
			"value": "",
			"enabled": true
		},
		{
			"key": "team_id",
			"value": "",
			"enabled": true
		}
	],
	"_postman_variable_scope": "environment",
	"_postman_exported_at": "2020-12-07T16:29:56.511Z",
	"_postman_exported_using": "Postman/7.36.0"
}